ratio;Ratio incoh 220;Ratio incoh 280
3;0;0
3.1;0;0
3.2;0;0
3.3;0;0
3.4;0;0
3.5;0;0
3.6;0;0
3.7;0;0
3.8;0;0
3.9;0;0
4;0.025;0
4.1;0.057142857;0.028571429
4.2;0.324324324;0.189189189
4.3;0.564102564;0.487179487
4.4;0.85;0.9
4.5;0.975;0.975
4.6;1;1
4.7;1;1
4.8;1;1
4.9;1;1
5;1;1
