num;clingo;dlv;idlv;compiled
0;0.712;0.596;0.744;2.488
1;1.592;2.38;2.416;2.772
2;2.896;4.608;3.516;3.32
3;7.98;5.856;6.036;3.812
4;8.244;10.872;9.092;4.028
5;9.688;18.244;10.156;4.088
6;13.896;19.788;12.204;4.276
7;16.224;20.324;14.952;4.752
8;18.016;30.756;18.488;6.252
9;19.476;31.636;24.28;6.26
10;23.396;35.112;24.748;7.364
11;29.448;43.944;29.296;7.372
12;41.604;45.004;32.836;7.592
13;59.388;62.68;35.932;8.424
14;64.024;67.076;38.432;8.444
15;65.648;68.604;41.492;10.192
16;66.668;73.236;41.524;10.332
17;84.14;75.752;45.888;10.608
18;86.872;79.272;47.824;11.448
19;93.332;88.68;53.816;12.924
20;98.8;91.69;53.848;13.152
21;103.804;119.036;57.004;13.788
22;129.612;123.688;65.684;16.892
23;156.816;153.28;70.096;22.576
24;186.944;160.336;82.988;23.62
25;223.5;168.12;85.532;24.384
26;259.69;186.564;140.432;29.516
27;299.184;303.576;141.016;32.616
28;317.24;343.952;168.004;42.216
29;329.72;379.448;180.04;55.416
30;334.016;392.904;185.92;58.384
31;338.34;442.668;194.88;80.56
32;531.928;448.584;223.248;84.168
33;;549.288;267.148;112.384
34;;567.596;330.44;143.808
35;;;352.832;187.676
36;;;483.744;238.056
37;;;;271.56
38;;;;326.168
39;;;;579.892
